([('getTrigers.exe',
   'C:\\Users\\Quentin '
   'Gaucher\\code\\arduinofus\\python\\build\\getTrigers\\getTrigers.exe',
   'EXECUTABLE'),
  ('getTrigers.exe.manifest',
   'C:\\Users\\Quentin '
   'Gaucher\\code\\arduinofus\\python\\build\\getTrigers\\getTrigers.exe.manifest',
   'BINARY'),
  ('api-ms-win-crt-heap-l1-1-0.dll',
   'C:\\Users\\Quentin '
   'Gaucher\\.conda\\envs\\pyinstallerEnv\\api-ms-win-crt-heap-l1-1-0.dll',
   'BINARY'),
  ('api-ms-win-crt-math-l1-1-0.dll',
   'C:\\Users\\Quentin '
   'Gaucher\\.conda\\envs\\pyinstallerEnv\\api-ms-win-crt-math-l1-1-0.dll',
   'BINARY'),
  ('api-ms-win-crt-stdio-l1-1-0.dll',
   'C:\\Users\\Quentin '
   'Gaucher\\.conda\\envs\\pyinstallerEnv\\api-ms-win-crt-stdio-l1-1-0.dll',
   'BINARY'),
  ('api-ms-win-crt-locale-l1-1-0.dll',
   'C:\\Users\\Quentin '
   'Gaucher\\.conda\\envs\\pyinstallerEnv\\api-ms-win-crt-locale-l1-1-0.dll',
   'BINARY'),
  ('python36.dll',
   'C:\\Users\\Quentin Gaucher\\.conda\\envs\\pyinstallerEnv\\python36.dll',
   'BINARY'),
  ('VCRUNTIME140.dll',
   'C:\\Users\\Quentin Gaucher\\.conda\\envs\\pyinstallerEnv\\VCRUNTIME140.dll',
   'BINARY'),
  ('api-ms-win-crt-runtime-l1-1-0.dll',
   'C:\\Users\\Quentin '
   'Gaucher\\.conda\\envs\\pyinstallerEnv\\api-ms-win-crt-runtime-l1-1-0.dll',
   'BINARY'),
  ('ucrtbase.dll',
   'C:\\Users\\Quentin Gaucher\\.conda\\envs\\pyinstallerEnv\\ucrtbase.dll',
   'BINARY'),
  ('api-ms-win-crt-process-l1-1-0.dll',
   'C:\\Users\\Quentin '
   'Gaucher\\.conda\\envs\\pyinstallerEnv\\api-ms-win-crt-process-l1-1-0.dll',
   'BINARY'),
  ('api-ms-win-crt-environment-l1-1-0.dll',
   'C:\\Users\\Quentin '
   'Gaucher\\.conda\\envs\\pyinstallerEnv\\api-ms-win-crt-environment-l1-1-0.dll',
   'BINARY'),
  ('api-ms-win-crt-string-l1-1-0.dll',
   'C:\\Users\\Quentin '
   'Gaucher\\.conda\\envs\\pyinstallerEnv\\api-ms-win-crt-string-l1-1-0.dll',
   'BINARY'),
  ('api-ms-win-crt-convert-l1-1-0.dll',
   'C:\\Users\\Quentin '
   'Gaucher\\.conda\\envs\\pyinstallerEnv\\api-ms-win-crt-convert-l1-1-0.dll',
   'BINARY'),
  ('api-ms-win-crt-conio-l1-1-0.dll',
   'C:\\Users\\Quentin '
   'Gaucher\\.conda\\envs\\pyinstallerEnv\\api-ms-win-crt-conio-l1-1-0.dll',
   'BINARY'),
  ('api-ms-win-crt-filesystem-l1-1-0.dll',
   'C:\\Users\\Quentin '
   'Gaucher\\.conda\\envs\\pyinstallerEnv\\api-ms-win-crt-filesystem-l1-1-0.dll',
   'BINARY'),
  ('api-ms-win-crt-time-l1-1-0.dll',
   'C:\\Users\\Quentin '
   'Gaucher\\.conda\\envs\\pyinstallerEnv\\api-ms-win-crt-time-l1-1-0.dll',
   'BINARY'),
  ('api-ms-win-core-memory-l1-1-0.dll',
   'C:\\Users\\Quentin '
   'Gaucher\\.conda\\envs\\pyinstallerEnv\\api-ms-win-core-memory-l1-1-0.dll',
   'BINARY'),
  ('api-ms-win-core-synch-l1-1-0.dll',
   'C:\\Users\\Quentin '
   'Gaucher\\.conda\\envs\\pyinstallerEnv\\api-ms-win-core-synch-l1-1-0.dll',
   'BINARY'),
  ('api-ms-win-core-file-l1-1-0.dll',
   'C:\\Users\\Quentin '
   'Gaucher\\.conda\\envs\\pyinstallerEnv\\api-ms-win-core-file-l1-1-0.dll',
   'BINARY'),
  ('api-ms-win-core-processthreads-l1-1-0.dll',
   'C:\\Users\\Quentin '
   'Gaucher\\.conda\\envs\\pyinstallerEnv\\api-ms-win-core-processthreads-l1-1-0.dll',
   'BINARY'),
  ('api-ms-win-core-console-l1-1-0.dll',
   'C:\\Users\\Quentin '
   'Gaucher\\.conda\\envs\\pyinstallerEnv\\api-ms-win-core-console-l1-1-0.dll',
   'BINARY'),
  ('api-ms-win-core-interlocked-l1-1-0.dll',
   'C:\\Users\\Quentin '
   'Gaucher\\.conda\\envs\\pyinstallerEnv\\api-ms-win-core-interlocked-l1-1-0.dll',
   'BINARY'),
  ('api-ms-win-core-debug-l1-1-0.dll',
   'C:\\Users\\Quentin '
   'Gaucher\\.conda\\envs\\pyinstallerEnv\\api-ms-win-core-debug-l1-1-0.dll',
   'BINARY'),
  ('api-ms-win-core-string-l1-1-0.dll',
   'C:\\Users\\Quentin '
   'Gaucher\\.conda\\envs\\pyinstallerEnv\\api-ms-win-core-string-l1-1-0.dll',
   'BINARY'),
  ('api-ms-win-core-libraryloader-l1-1-0.dll',
   'C:\\Users\\Quentin '
   'Gaucher\\.conda\\envs\\pyinstallerEnv\\api-ms-win-core-libraryloader-l1-1-0.dll',
   'BINARY'),
  ('api-ms-win-core-profile-l1-1-0.dll',
   'C:\\Users\\Quentin '
   'Gaucher\\.conda\\envs\\pyinstallerEnv\\api-ms-win-core-profile-l1-1-0.dll',
   'BINARY'),
  ('api-ms-win-core-localization-l1-2-0.dll',
   'C:\\Users\\Quentin '
   'Gaucher\\.conda\\envs\\pyinstallerEnv\\api-ms-win-core-localization-l1-2-0.dll',
   'BINARY'),
  ('api-ms-win-core-processthreads-l1-1-1.dll',
   'C:\\Users\\Quentin '
   'Gaucher\\.conda\\envs\\pyinstallerEnv\\api-ms-win-core-processthreads-l1-1-1.dll',
   'BINARY'),
  ('api-ms-win-core-timezone-l1-1-0.dll',
   'C:\\Users\\Quentin '
   'Gaucher\\.conda\\envs\\pyinstallerEnv\\api-ms-win-core-timezone-l1-1-0.dll',
   'BINARY'),
  ('api-ms-win-core-file-l2-1-0.dll',
   'C:\\Users\\Quentin '
   'Gaucher\\.conda\\envs\\pyinstallerEnv\\api-ms-win-core-file-l2-1-0.dll',
   'BINARY'),
  ('api-ms-win-core-rtlsupport-l1-1-0.dll',
   'C:\\Users\\Quentin '
   'Gaucher\\.conda\\envs\\pyinstallerEnv\\api-ms-win-core-rtlsupport-l1-1-0.dll',
   'BINARY'),
  ('api-ms-win-core-processenvironment-l1-1-0.dll',
   'C:\\Users\\Quentin '
   'Gaucher\\.conda\\envs\\pyinstallerEnv\\api-ms-win-core-processenvironment-l1-1-0.dll',
   'BINARY'),
  ('api-ms-win-core-handle-l1-1-0.dll',
   'C:\\Users\\Quentin '
   'Gaucher\\.conda\\envs\\pyinstallerEnv\\api-ms-win-core-handle-l1-1-0.dll',
   'BINARY'),
  ('api-ms-win-core-datetime-l1-1-0.dll',
   'C:\\Users\\Quentin '
   'Gaucher\\.conda\\envs\\pyinstallerEnv\\api-ms-win-core-datetime-l1-1-0.dll',
   'BINARY'),
  ('api-ms-win-core-heap-l1-1-0.dll',
   'C:\\Users\\Quentin '
   'Gaucher\\.conda\\envs\\pyinstallerEnv\\api-ms-win-core-heap-l1-1-0.dll',
   'BINARY'),
  ('api-ms-win-core-errorhandling-l1-1-0.dll',
   'C:\\Users\\Quentin '
   'Gaucher\\.conda\\envs\\pyinstallerEnv\\api-ms-win-core-errorhandling-l1-1-0.dll',
   'BINARY'),
  ('api-ms-win-core-namedpipe-l1-1-0.dll',
   'C:\\Users\\Quentin '
   'Gaucher\\.conda\\envs\\pyinstallerEnv\\api-ms-win-core-namedpipe-l1-1-0.dll',
   'BINARY'),
  ('api-ms-win-core-file-l1-2-0.dll',
   'C:\\Users\\Quentin '
   'Gaucher\\.conda\\envs\\pyinstallerEnv\\api-ms-win-core-file-l1-2-0.dll',
   'BINARY'),
  ('api-ms-win-core-sysinfo-l1-1-0.dll',
   'C:\\Users\\Quentin '
   'Gaucher\\.conda\\envs\\pyinstallerEnv\\api-ms-win-core-sysinfo-l1-1-0.dll',
   'BINARY'),
  ('api-ms-win-core-synch-l1-2-0.dll',
   'C:\\Users\\Quentin '
   'Gaucher\\.conda\\envs\\pyinstallerEnv\\api-ms-win-core-synch-l1-2-0.dll',
   'BINARY'),
  ('api-ms-win-core-util-l1-1-0.dll',
   'C:\\Users\\Quentin '
   'Gaucher\\.conda\\envs\\pyinstallerEnv\\api-ms-win-core-util-l1-1-0.dll',
   'BINARY'),
  ('_socket',
   'C:\\Users\\Quentin '
   'Gaucher\\.conda\\envs\\pyinstallerEnv\\DLLs\\_socket.pyd',
   'EXTENSION'),
  ('select',
   'C:\\Users\\Quentin Gaucher\\.conda\\envs\\pyinstallerEnv\\DLLs\\select.pyd',
   'EXTENSION'),
  ('_hashlib',
   'C:\\Users\\Quentin '
   'Gaucher\\.conda\\envs\\pyinstallerEnv\\DLLs\\_hashlib.pyd',
   'EXTENSION'),
  ('_ssl',
   'C:\\Users\\Quentin Gaucher\\.conda\\envs\\pyinstallerEnv\\DLLs\\_ssl.pyd',
   'EXTENSION'),
  ('unicodedata',
   'C:\\Users\\Quentin '
   'Gaucher\\.conda\\envs\\pyinstallerEnv\\DLLs\\unicodedata.pyd',
   'EXTENSION'),
  ('pyexpat',
   'C:\\Users\\Quentin '
   'Gaucher\\.conda\\envs\\pyinstallerEnv\\DLLs\\pyexpat.pyd',
   'EXTENSION'),
  ('_bz2',
   'C:\\Users\\Quentin Gaucher\\.conda\\envs\\pyinstallerEnv\\DLLs\\_bz2.pyd',
   'EXTENSION'),
  ('_lzma',
   'C:\\Users\\Quentin Gaucher\\.conda\\envs\\pyinstallerEnv\\DLLs\\_lzma.pyd',
   'EXTENSION'),
  ('_ctypes',
   'C:\\Users\\Quentin '
   'Gaucher\\.conda\\envs\\pyinstallerEnv\\DLLs\\_ctypes.pyd',
   'EXTENSION'),
  ('api-ms-win-crt-utility-l1-1-0.dll',
   'C:\\Users\\Quentin '
   'Gaucher\\.conda\\envs\\pyinstallerEnv\\api-ms-win-crt-utility-l1-1-0.dll',
   'BINARY'),
  ('base_library.zip',
   'C:\\Users\\Quentin '
   'Gaucher\\code\\arduinofus\\python\\build\\getTrigers\\base_library.zip',
   'DATA')],)
