('C:\\Users\\Quentin '
 'Gaucher\\code\\arduinofus\\python\\build\\getTrigers\\PKG-00.pkg',
 {'BINARY': 1,
  'DATA': 1,
  'EXECUTABLE': 1,
  'EXTENSION': 1,
  'PYMODULE': 1,
  'PYSOURCE': 1,
  'PYZ': 0},
 [('PYZ-00.pyz',
   'C:\\Users\\Quentin '
   'Gaucher\\code\\arduinofus\\python\\build\\getTrigers\\PYZ-00.pyz',
   'PYZ'),
  ('struct',
   'C:\\Users\\Quentin Gaucher\\.conda\\envs\\pyinstallerEnv\\lib\\struct.pyo',
   'PYMODULE'),
  ('pyimod01_os_path',
   'C:\\Users\\Quentin '
   'Gaucher\\.conda\\envs\\pyinstallerEnv\\lib\\site-packages\\PyInstaller\\loader\\pyimod01_os_path.pyc',
   'PYMODULE'),
  ('pyimod02_archive',
   'C:\\Users\\Quentin '
   'Gaucher\\.conda\\envs\\pyinstallerEnv\\lib\\site-packages\\PyInstaller\\loader\\pyimod02_archive.pyc',
   'PYMODULE'),
  ('pyimod03_importers',
   'C:\\Users\\Quentin '
   'Gaucher\\.conda\\envs\\pyinstallerEnv\\lib\\site-packages\\PyInstaller\\loader\\pyimod03_importers.pyc',
   'PYMODULE'),
  ('pyiboot01_bootstrap',
   'C:\\Users\\Quentin '
   'Gaucher\\.conda\\envs\\pyinstallerEnv\\lib\\site-packages\\PyInstaller\\loader\\pyiboot01_bootstrap.py',
   'PYSOURCE'),
  ('getTrigers',
   'C:\\Users\\Quentin Gaucher\\code\\arduinofus\\python\\getTrigers.py',
   'PYSOURCE'),
  ('getTrigers.exe.manifest',
   'C:\\Users\\Quentin '
   'Gaucher\\code\\arduinofus\\python\\build\\getTrigers\\getTrigers.exe.manifest',
   'BINARY')],
 True,
 False,
 False,
 [])
